{
  "__inputs": [],
  "__requires": [
    {
      "type": "grafana",
      "id": "grafana",
      "name": "Grafana",
      "version": "7.5.5"
    },
    {
      "type": "panel",
      "id": "graph",
      "name": "Graph",
      "version": ""
    },
    {
      "type": "datasource",
      "id": "influxdb",
      "name": "InfluxDB",
      "version": "1.0.0"
    },
    {
      "type": "panel",
      "id": "table",
      "name": "Table",
      "version": ""
    }
  ],
  "annotations": {
    "list": [
      {
        "builtIn": 1,
        "datasource": "-- Grafana --",
        "enable": true,
        "hide": true,
        "iconColor": "rgba(0, 211, 255, 1)",
        "name": "Annotations & Alerts",
        "type": "dashboard"
      }
    ]
  },
  "editable": true,
  "gnetId": null,
  "graphTooltip": 1,
  "id": null,
  "iteration": 1639488076887,
  "links": [],
  "panels": [
    {
      "collapsed": true,
      "datasource": null,
      "gridPos": {
        "h": 1,
        "w": 24,
        "x": 0,
        "y": 0
      },
      "id": 33,
      "panels": [
        {
          "datasource": "$SISTEMA",
          "fieldConfig": {
            "defaults": {
              "color": {
                "mode": "thresholds"
              },
              "custom": {
                "align": null,
                "displayMode": "auto",
                "filterable": true
              },
              "decimals": 0,
              "mappings": [],
              "thresholds": {
                "mode": "absolute",
                "steps": [
                  {
                    "color": "green",
                    "value": null
                  },
                  {
                    "color": "red",
                    "value": 80
                  }
                ]
              },
              "unit": "none"
            },
            "overrides": [
              {
                "matcher": {
                  "id": "byName",
                  "options": "Time"
                },
                "properties": [
                  {
                    "id": "unit",
                    "value": "time: YYYY-MM-DD HH:mm:ss"
                  },
                  {
                    "id": "custom.align",
                    "value": null
                  }
                ]
              },
              {
                "matcher": {
                  "id": "byName",
                  "options": "CLIENT_EVENTS2.AxComputer"
                },
                "properties": [
                  {
                    "id": "displayName",
                    "value": "AxClientHost"
                  },
                  {
                    "id": "unit",
                    "value": "string"
                  },
                  {
                    "id": "decimals",
                    "value": 2
                  },
                  {
                    "id": "custom.align",
                    "value": "left"
                  },
                  {
                    "id": "thresholds",
                    "value": {
                      "mode": "absolute",
                      "steps": [
                        {
                          "color": "rgba(50, 172, 45, 0.97)",
                          "value": null
                        },
                        {
                          "color": "#cca300",
                          "value": null
                        }
                      ]
                    }
                  }
                ]
              },
              {
                "matcher": {
                  "id": "byName",
                  "options": "CLIENT_EVENTS2.AxServer"
                },
                "properties": [
                  {
                    "id": "displayName",
                    "value": "AxAosHost"
                  },
                  {
                    "id": "unit",
                    "value": "string"
                  },
                  {
                    "id": "decimals",
                    "value": 2
                  },
                  {
                    "id": "custom.align",
                    "value": "left"
                  }
                ]
              },
              {
                "matcher": {
                  "id": "byName",
                  "options": "CLIENT_EVENTS2.AxUser"
                },
                "properties": [
                  {
                    "id": "displayName",
                    "value": "AxUser"
                  },
                  {
                    "id": "unit",
                    "value": "string"
                  },
                  {
                    "id": "decimals",
                    "value": 2
                  },
                  {
                    "id": "custom.align",
                    "value": "left"
                  },
                  {
                    "id": "custom.width"
                  }
                ]
              },
              {
                "matcher": {
                  "id": "byName",
                  "options": "CLIENT_EVENTS2.FORM"
                },
                "properties": [
                  {
                    "id": "displayName",
                    "value": "Form"
                  },
                  {
                    "id": "unit",
                    "value": "string"
                  },
                  {
                    "id": "decimals",
                    "value": 2
                  },
                  {
                    "id": "custom.align",
                    "value": "left"
                  }
                ]
              },
              {
                "matcher": {
                  "id": "byName",
                  "options": "CLIENT_EVENTS2.FormOpen"
                },
                "properties": [
                  {
                    "id": "displayName",
                    "value": "FormOpen"
                  },
                  {
                    "id": "custom.displayMode",
                    "value": "color-background"
                  },
                  {
                    "id": "custom.align",
                    "value": "left"
                  },
                  {
                    "id": "thresholds",
                    "value": {
                      "mode": "absolute",
                      "steps": [
                        {
                          "color": "rgba(0, 0, 0,0)",
                          "value": null
                        },
                        {
                          "color": "#1f78c1",
                          "value": 1
                        },
                        {
                          "color": "rgba(0, 0, 0,0)",
                          "value": 2
                        }
                      ]
                    }
                  },
                  {
                    "id": "mappings",
                    "value": [
                      {
                        "from": "",
                        "id": 1,
                        "text": "Open",
                        "to": "",
                        "type": 1,
                        "value": "1"
                      },
                      {
                        "from": "",
                        "id": 2,
                        "text": "",
                        "to": "",
                        "type": 1,
                        "value": "0"
                      }
                    ]
                  }
                ]
              },
              {
                "matcher": {
                  "id": "byName",
                  "options": "CLIENT_EVENTS2.FormClose"
                },
                "properties": [
                  {
                    "id": "displayName",
                    "value": "FormClose"
                  },
                  {
                    "id": "custom.displayMode",
                    "value": "color-background"
                  },
                  {
                    "id": "custom.align",
                    "value": "left"
                  },
                  {
                    "id": "thresholds",
                    "value": {
                      "mode": "absolute",
                      "steps": [
                        {
                          "color": "rgba(0, 0, 0,0)",
                          "value": null
                        },
                        {
                          "color": "#1f78c1",
                          "value": 1
                        },
                        {
                          "color": "rgba(0, 0, 0,0)",
                          "value": 2
                        }
                      ]
                    }
                  },
                  {
                    "id": "mappings",
                    "value": [
                      {
                        "from": "",
                        "id": 1,
                        "text": "Close",
                        "to": "",
                        "type": 1,
                        "value": "1"
                      },
                      {
                        "from": "",
                        "id": 2,
                        "text": "",
                        "to": "",
                        "type": 1,
                        "value": "0"
                      }
                    ]
                  }
                ]
              },
              {
                "matcher": {
                  "id": "byName",
                  "options": "CLIENT_EVENTS2.ControlClicked"
                },
                "properties": [
                  {
                    "id": "displayName",
                    "value": "ControlClicked"
                  },
                  {
                    "id": "custom.displayMode",
                    "value": "color-background"
                  },
                  {
                    "id": "custom.align",
                    "value": "left"
                  },
                  {
                    "id": "thresholds",
                    "value": {
                      "mode": "absolute",
                      "steps": [
                        {
                          "color": "rgba(0, 0, 0,0)",
                          "value": null
                        },
                        {
                          "color": "#1f78c1",
                          "value": 1
                        },
                        {
                          "color": "rgba(0, 0, 0,0)",
                          "value": 2
                        }
                      ]
                    }
                  },
                  {
                    "id": "mappings",
                    "value": [
                      {
                        "from": "",
                        "id": 1,
                        "text": "Clicked",
                        "to": "",
                        "type": 1,
                        "value": "1"
                      },
                      {
                        "from": "",
                        "id": 2,
                        "text": "",
                        "to": "",
                        "type": 1,
                        "value": "0"
                      }
                    ]
                  }
                ]
              },
              {
                "matcher": {
                  "id": "byName",
                  "options": "CLIENT_EVENTS2.AxSession"
                },
                "properties": [
                  {
                    "id": "displayName",
                    "value": "AxSession"
                  },
                  {
                    "id": "custom.align",
                    "value": "left"
                  }
                ]
              },
              {
                "matcher": {
                  "id": "byName",
                  "options": "Form"
                },
                "properties": [
                  {
                    "id": "custom.width",
                    "value": 526
                  }
                ]
              },
              {
                "matcher": {
                  "id": "byName",
                  "options": "FormOpen"
                },
                "properties": [
                  {
                    "id": "custom.width",
                    "value": 102
                  }
                ]
              },
              {
                "matcher": {
                  "id": "byName",
                  "options": "FormClose"
                },
                "properties": [
                  {
                    "id": "custom.width",
                    "value": 100
                  }
                ]
              },
              {
                "matcher": {
                  "id": "byName",
                  "options": "ControlClicked"
                },
                "properties": [
                  {
                    "id": "custom.width",
                    "value": 134
                  }
                ]
              },
              {
                "matcher": {
                  "id": "byName",
                  "options": "AxSession"
                },
                "properties": [
                  {
                    "id": "custom.width",
                    "value": 102
                  }
                ]
              },
              {
                "matcher": {
                  "id": "byName",
                  "options": "AxUser"
                },
                "properties": [
                  {
                    "id": "custom.width",
                    "value": 85
                  }
                ]
              }
            ]
          },
          "gridPos": {
            "h": 18,
            "w": 24,
            "x": 0,
            "y": 1
          },
          "id": 26,
          "links": [],
          "options": {
            "showHeader": true,
            "sortBy": [
              {
                "desc": false,
                "displayName": "Time"
              }
            ]
          },
          "pluginVersion": "7.5.5",
          "targets": [
            {
              "dsType": "influxdb",
              "groupBy": [],
              "hide": true,
              "measurement": "CLIENT_EVENTS2",
              "orderByTime": "ASC",
              "policy": "default",
              "query": "SELECT \"AxUser\", \"Control\" AS \"FORM\", \"FormOpen\", \"FormClose\", \"ControlClicked\", \"AxSession\" FROM \"CLIENT_EVENTS\" WHERE \"AxUser\" =~ /^$USER$/ AND \"Control\" =~ /^$CONTROLNAME$/ AND $timeFilter",
              "rawQuery": false,
              "refId": "A",
              "resultFormat": "time_series",
              "select": [
                [
                  {
                    "params": [
                      "AxUser"
                    ],
                    "type": "field"
                  }
                ],
                [
                  {
                    "params": [
                      "Control"
                    ],
                    "type": "field"
                  },
                  {
                    "params": [
                      "FORM"
                    ],
                    "type": "alias"
                  }
                ],
                [
                  {
                    "params": [
                      "FormOpen"
                    ],
                    "type": "field"
                  }
                ],
                [
                  {
                    "params": [
                      "FormClose"
                    ],
                    "type": "field"
                  }
                ],
                [
                  {
                    "params": [
                      "ControlClicked"
                    ],
                    "type": "field"
                  }
                ],
                [
                  {
                    "params": [
                      "AxSession"
                    ],
                    "type": "field"
                  }
                ],
                [
                  {
                    "params": [
                      "AxComputer"
                    ],
                    "type": "field"
                  }
                ],
                [
                  {
                    "params": [
                      "AxServer"
                    ],
                    "type": "field"
                  }
                ]
              ],
              "tags": [
                {
                  "key": "AxUser",
                  "operator": "=~",
                  "value": "/^$USER$/"
                },
                {
                  "condition": "AND",
                  "key": "Control",
                  "operator": "=~",
                  "value": "/^$CONTROLNAME$/"
                }
              ]
            },
            {
              "dsType": "influxdb",
              "groupBy": [],
              "hide": false,
              "measurement": "CLIENT_EVENTS2",
              "orderByTime": "ASC",
              "policy": "default",
              "query": "SELECT \"AxUser\", \"Control\" AS \"FORM\", \"FormOpen\", \"FormClose\", \"ControlClicked\", \"AxSession\", \"AxComputer\", \"AxServer\" FROM \"CLIENT_EVENTS2\" WHERE (\"AxUser\" =~ /^$USER$/ AND \"Control\" =~ /^$CONTROLNAME$/ AND AxServer =~ /^$AxAosHost$/ AND AxComputer =~ /^$AxClientHost$/)  AND $timeFilter ",
              "rawQuery": true,
              "refId": "B",
              "resultFormat": "time_series",
              "select": [
                [
                  {
                    "params": [
                      "AxUser"
                    ],
                    "type": "field"
                  }
                ],
                [
                  {
                    "params": [
                      "Control"
                    ],
                    "type": "field"
                  },
                  {
                    "params": [
                      "FORM"
                    ],
                    "type": "alias"
                  }
                ],
                [
                  {
                    "params": [
                      "FormOpen"
                    ],
                    "type": "field"
                  }
                ],
                [
                  {
                    "params": [
                      "FormClose"
                    ],
                    "type": "field"
                  }
                ],
                [
                  {
                    "params": [
                      "ControlClicked"
                    ],
                    "type": "field"
                  }
                ],
                [
                  {
                    "params": [
                      "AxSession"
                    ],
                    "type": "field"
                  }
                ],
                [
                  {
                    "params": [
                      "AxComputer"
                    ],
                    "type": "field"
                  }
                ],
                [
                  {
                    "params": [
                      "AxServer"
                    ],
                    "type": "field"
                  }
                ]
              ],
              "tags": [
                {
                  "key": "AxUser",
                  "operator": "=~",
                  "value": "/^$USER$/"
                },
                {
                  "condition": "AND",
                  "key": "Control",
                  "operator": "=~",
                  "value": "/^$CONTROLNAME$/"
                }
              ]
            }
          ],
          "transformations": [
            {
              "id": "seriesToColumns",
              "options": {
                "reducers": []
              }
            }
          ],
          "transparent": true,
          "type": "table"
        }
      ],
      "repeat": null,
      "title": "AX CLIENT EVENTS",
      "type": "row"
    },
    {
      "collapsed": true,
      "datasource": null,
      "gridPos": {
        "h": 1,
        "w": 24,
        "x": 0,
        "y": 1
      },
      "id": 34,
      "panels": [
        {
          "aliasColors": {},
          "bars": true,
          "dashLength": 10,
          "dashes": false,
          "datasource": "$SISTEMA",
          "fieldConfig": {
            "defaults": {
              "links": []
            },
            "overrides": []
          },
          "fill": 1,
          "fillGradient": 0,
          "gridPos": {
            "h": 7,
            "w": 24,
            "x": 0,
            "y": 2
          },
          "hiddenSeries": false,
          "id": 29,
          "legend": {
            "alignAsTable": true,
            "avg": true,
            "current": false,
            "hideEmpty": true,
            "hideZero": true,
            "max": true,
            "min": true,
            "show": true,
            "sort": "total",
            "sortDesc": true,
            "total": true,
            "values": true
          },
          "lines": false,
          "linewidth": 1,
          "links": [],
          "nullPointMode": "null",
          "options": {
            "alertThreshold": true
          },
          "percentage": false,
          "pluginVersion": "7.5.5",
          "pointradius": 5,
          "points": false,
          "renderer": "flot",
          "seriesOverrides": [],
          "spaceLength": 10,
          "stack": false,
          "steppedLine": false,
          "targets": [
            {
              "alias": "$col: $tag_Control",
              "dsType": "influxdb",
              "groupBy": [
                {
                  "params": [
                    "15m"
                  ],
                  "type": "time"
                },
                {
                  "params": [
                    "Control"
                  ],
                  "type": "tag"
                }
              ],
              "hide": true,
              "measurement": "CLIENT_EVENTS2",
              "orderByTime": "ASC",
              "policy": "default",
              "refId": "A",
              "resultFormat": "time_series",
              "select": [
                [
                  {
                    "params": [
                      "FormOpen"
                    ],
                    "type": "field"
                  },
                  {
                    "params": [],
                    "type": "sum"
                  },
                  {
                    "params": [
                      "FormOpen"
                    ],
                    "type": "alias"
                  }
                ]
              ],
              "tags": [
                {
                  "key": "Control",
                  "operator": "=~",
                  "value": "/^$CONTROLNAME$/"
                },
                {
                  "condition": "AND",
                  "key": "AxUser",
                  "operator": "=~",
                  "value": "/^$USER$/"
                }
              ]
            },
            {
              "alias": "$col: $tag_Control $tag_AxUser",
              "dsType": "influxdb",
              "groupBy": [
                {
                  "params": [
                    "15m"
                  ],
                  "type": "time"
                },
                {
                  "params": [
                    "Control"
                  ],
                  "type": "tag"
                }
              ],
              "measurement": "CLIENT_EVENTS2",
              "orderByTime": "ASC",
              "policy": "default",
              "query": "SELECT sum(\"FormOpen\") AS \"FormOpen\" FROM \"CLIENT_EVENTS2\" WHERE (\"AxUser\" =~ /^$USER$/ AND \"Control\" =~ /^$CONTROLNAME$/ AND AxServer =~ /^$AxAosHost$/ AND AxComputer =~ /^$AxClientHost$/)  AND $timeFilter GROUP BY time($AggragationInterval), \"Control\", \"AxUser\"",
              "rawQuery": true,
              "refId": "B",
              "resultFormat": "time_series",
              "select": [
                [
                  {
                    "params": [
                      "FormOpen"
                    ],
                    "type": "field"
                  },
                  {
                    "params": [],
                    "type": "sum"
                  },
                  {
                    "params": [
                      "FormOpen"
                    ],
                    "type": "alias"
                  }
                ]
              ],
              "tags": [
                {
                  "key": "Control",
                  "operator": "=~",
                  "value": "/^$CONTROLNAME$/"
                },
                {
                  "condition": "AND",
                  "key": "AxUser",
                  "operator": "=~",
                  "value": "/^$USER$/"
                }
              ]
            }
          ],
          "thresholds": [],
          "timeFrom": null,
          "timeRegions": [],
          "timeShift": null,
          "title": "Open",
          "tooltip": {
            "shared": false,
            "sort": 0,
            "value_type": "individual"
          },
          "type": "graph",
          "xaxis": {
            "buckets": null,
            "mode": "time",
            "name": null,
            "show": true,
            "values": []
          },
          "yaxes": [
            {
              "format": "short",
              "label": null,
              "logBase": 1,
              "max": null,
              "min": null,
              "show": true
            },
            {
              "format": "short",
              "label": null,
              "logBase": 1,
              "max": null,
              "min": null,
              "show": true
            }
          ],
          "yaxis": {
            "align": false,
            "alignLevel": null
          }
        }
      ],
      "repeat": null,
      "title": "AX Form Open statistics",
      "type": "row"
    },
    {
      "collapsed": true,
      "datasource": null,
      "gridPos": {
        "h": 1,
        "w": 24,
        "x": 0,
        "y": 2
      },
      "id": 35,
      "panels": [
        {
          "aliasColors": {},
          "bars": true,
          "dashLength": 10,
          "dashes": false,
          "datasource": "$SISTEMA",
          "fieldConfig": {
            "defaults": {
              "links": []
            },
            "overrides": []
          },
          "fill": 1,
          "fillGradient": 0,
          "gridPos": {
            "h": 7,
            "w": 24,
            "x": 0,
            "y": 3
          },
          "hiddenSeries": false,
          "id": 30,
          "legend": {
            "alignAsTable": true,
            "avg": true,
            "current": false,
            "hideEmpty": true,
            "hideZero": true,
            "max": true,
            "min": true,
            "show": true,
            "sort": "total",
            "sortDesc": true,
            "total": true,
            "values": true
          },
          "lines": false,
          "linewidth": 1,
          "links": [],
          "nullPointMode": "null",
          "options": {
            "alertThreshold": true
          },
          "percentage": false,
          "pluginVersion": "7.5.5",
          "pointradius": 5,
          "points": false,
          "renderer": "flot",
          "seriesOverrides": [],
          "spaceLength": 10,
          "stack": false,
          "steppedLine": false,
          "targets": [
            {
              "alias": "$col: $tag_Control",
              "dsType": "influxdb",
              "groupBy": [
                {
                  "params": [
                    "15m"
                  ],
                  "type": "time"
                },
                {
                  "params": [
                    "Control"
                  ],
                  "type": "tag"
                }
              ],
              "hide": true,
              "measurement": "CLIENT_EVENTS2",
              "orderByTime": "ASC",
              "policy": "default",
              "refId": "A",
              "resultFormat": "time_series",
              "select": [
                [
                  {
                    "params": [
                      "FormClose"
                    ],
                    "type": "field"
                  },
                  {
                    "params": [],
                    "type": "sum"
                  },
                  {
                    "params": [
                      "FormOpen"
                    ],
                    "type": "alias"
                  }
                ]
              ],
              "tags": [
                {
                  "key": "Control",
                  "operator": "=~",
                  "value": "/^$CONTROLNAME$/"
                },
                {
                  "condition": "AND",
                  "key": "AxUser",
                  "operator": "=~",
                  "value": "/^$USER$/"
                }
              ]
            },
            {
              "alias": "$col: $tag_Control $tag_AxUser",
              "dsType": "influxdb",
              "groupBy": [
                {
                  "params": [
                    "15m"
                  ],
                  "type": "time"
                },
                {
                  "params": [
                    "Control"
                  ],
                  "type": "tag"
                }
              ],
              "measurement": "CLIENT_EVENTS2",
              "orderByTime": "ASC",
              "policy": "default",
              "query": "SELECT sum(\"FormClose\") AS \"FormClose\" FROM \"CLIENT_EVENTS2\" WHERE (\"AxUser\" =~ /^$USER$/ AND \"Control\" =~ /^$CONTROLNAME$/ AND AxServer =~ /^$AxAosHost$/ AND AxComputer =~ /^$AxClientHost$/)  AND $timeFilter GROUP BY time($AggragationInterval), \"Control\", \"AxUser\"",
              "rawQuery": true,
              "refId": "B",
              "resultFormat": "time_series",
              "select": [
                [
                  {
                    "params": [
                      "FormClose"
                    ],
                    "type": "field"
                  },
                  {
                    "params": [],
                    "type": "sum"
                  },
                  {
                    "params": [
                      "FormOpen"
                    ],
                    "type": "alias"
                  }
                ]
              ],
              "tags": [
                {
                  "key": "Control",
                  "operator": "=~",
                  "value": "/^$CONTROLNAME$/"
                },
                {
                  "condition": "AND",
                  "key": "AxUser",
                  "operator": "=~",
                  "value": "/^$USER$/"
                }
              ]
            }
          ],
          "thresholds": [],
          "timeFrom": null,
          "timeRegions": [],
          "timeShift": null,
          "title": "Close",
          "tooltip": {
            "shared": false,
            "sort": 0,
            "value_type": "individual"
          },
          "type": "graph",
          "xaxis": {
            "buckets": null,
            "mode": "time",
            "name": null,
            "show": true,
            "values": []
          },
          "yaxes": [
            {
              "format": "short",
              "label": null,
              "logBase": 1,
              "max": null,
              "min": null,
              "show": true
            },
            {
              "format": "short",
              "label": null,
              "logBase": 1,
              "max": null,
              "min": null,
              "show": true
            }
          ],
          "yaxis": {
            "align": false,
            "alignLevel": null
          }
        }
      ],
      "repeat": null,
      "title": "AX Form Close statistics",
      "type": "row"
    },
    {
      "collapsed": true,
      "datasource": null,
      "gridPos": {
        "h": 1,
        "w": 24,
        "x": 0,
        "y": 3
      },
      "id": 36,
      "panels": [
        {
          "aliasColors": {},
          "bars": true,
          "dashLength": 10,
          "dashes": false,
          "datasource": "$SISTEMA",
          "fieldConfig": {
            "defaults": {
              "links": []
            },
            "overrides": []
          },
          "fill": 1,
          "fillGradient": 0,
          "gridPos": {
            "h": 7,
            "w": 24,
            "x": 0,
            "y": 11
          },
          "hiddenSeries": false,
          "id": 31,
          "legend": {
            "alignAsTable": true,
            "avg": true,
            "current": false,
            "hideEmpty": true,
            "hideZero": true,
            "max": true,
            "min": true,
            "show": true,
            "sort": "total",
            "sortDesc": true,
            "total": true,
            "values": true
          },
          "lines": false,
          "linewidth": 1,
          "links": [],
          "nullPointMode": "null",
          "options": {
            "alertThreshold": true
          },
          "percentage": false,
          "pluginVersion": "7.5.5",
          "pointradius": 5,
          "points": false,
          "renderer": "flot",
          "seriesOverrides": [],
          "spaceLength": 10,
          "stack": false,
          "steppedLine": false,
          "targets": [
            {
              "alias": "$col: $tag_Control",
              "dsType": "influxdb",
              "groupBy": [
                {
                  "params": [
                    "15m"
                  ],
                  "type": "time"
                },
                {
                  "params": [
                    "Control"
                  ],
                  "type": "tag"
                }
              ],
              "hide": true,
              "measurement": "CLIENT_EVENTS2",
              "orderByTime": "ASC",
              "policy": "default",
              "refId": "A",
              "resultFormat": "time_series",
              "select": [
                [
                  {
                    "params": [
                      "ControlClicked"
                    ],
                    "type": "field"
                  },
                  {
                    "params": [],
                    "type": "sum"
                  },
                  {
                    "params": [
                      "FormOpen"
                    ],
                    "type": "alias"
                  }
                ]
              ],
              "tags": [
                {
                  "key": "Control",
                  "operator": "=~",
                  "value": "/^$CONTROLNAME$/"
                },
                {
                  "condition": "AND",
                  "key": "AxUser",
                  "operator": "=~",
                  "value": "/^$USER$/"
                }
              ]
            },
            {
              "alias": "$col: $tag_Control $tag_AxUser",
              "dsType": "influxdb",
              "groupBy": [
                {
                  "params": [
                    "15m"
                  ],
                  "type": "time"
                },
                {
                  "params": [
                    "Control"
                  ],
                  "type": "tag"
                }
              ],
              "measurement": "CLIENT_EVENTS2",
              "orderByTime": "ASC",
              "policy": "default",
              "query": "SELECT sum(\"ControlClicked\") AS \"ControlClicked\" FROM \"CLIENT_EVENTS2\" WHERE (\"AxUser\" =~ /^$USER$/ AND \"Control\" =~ /^$CONTROLNAME$/ AND AxServer =~ /^$AxAosHost$/ AND AxComputer =~ /^$AxClientHost$/)  AND $timeFilter GROUP BY time($AggragationInterval), \"Control\", \"AxUser\"",
              "rawQuery": true,
              "refId": "B",
              "resultFormat": "time_series",
              "select": [
                [
                  {
                    "params": [
                      "ControlClicked"
                    ],
                    "type": "field"
                  },
                  {
                    "params": [],
                    "type": "sum"
                  },
                  {
                    "params": [
                      "FormOpen"
                    ],
                    "type": "alias"
                  }
                ]
              ],
              "tags": [
                {
                  "key": "Control",
                  "operator": "=~",
                  "value": "/^$CONTROLNAME$/"
                },
                {
                  "condition": "AND",
                  "key": "AxUser",
                  "operator": "=~",
                  "value": "/^$USER$/"
                }
              ]
            }
          ],
          "thresholds": [],
          "timeFrom": null,
          "timeRegions": [],
          "timeShift": null,
          "title": "Control Clicked",
          "tooltip": {
            "shared": false,
            "sort": 0,
            "value_type": "individual"
          },
          "type": "graph",
          "xaxis": {
            "buckets": null,
            "mode": "time",
            "name": null,
            "show": true,
            "values": []
          },
          "yaxes": [
            {
              "format": "short",
              "label": null,
              "logBase": 1,
              "max": null,
              "min": null,
              "show": true
            },
            {
              "format": "short",
              "label": null,
              "logBase": 1,
              "max": null,
              "min": null,
              "show": true
            }
          ],
          "yaxis": {
            "align": false,
            "alignLevel": null
          }
        }
      ],
      "repeat": null,
      "title": "AX Control statistics",
      "type": "row"
    }
  ],
  "refresh": false,
  "schemaVersion": 27,
  "style": "dark",
  "tags": [],
  "templating": {
    "list": [
      {
        "current": {
          "selected": false,
          "text": "1869-wpc.local",
          "value": "1869-wpc.local"
        },
        "description": null,
        "error": null,
        "hide": 2,
        "includeAll": false,
        "label": null,
        "multi": false,
        "name": "SISTEMA",
        "options": [],
        "query": "influxdb",
        "refresh": 1,
        "regex": "^((?!.*FLUX.*).)*$",
        "skipUrlSync": false,
        "type": "datasource"
      },
      {
        "current": {
          "selected": false,
          "text": "FLUX.1869-wpc.local",
          "value": "FLUX.1869-wpc.local"
        },
        "description": null,
        "error": null,
        "hide": 2,
        "includeAll": false,
        "label": null,
        "multi": false,
        "name": "SISTEMAFLUX",
        "options": [],
        "query": "influxdb",
        "refresh": 1,
        "regex": "FLUX.*",
        "skipUrlSync": false,
        "type": "datasource"
      },
      {
        "allValue": "*",
        "current": {},
        "datasource": "$SISTEMA",
        "definition": "SHOW TAG VALUES FROM \"CLIENT_EVENTS2\" WITH KEY = \"AxUser\" where time>now() -2w",
        "description": null,
        "error": null,
        "hide": 0,
        "includeAll": true,
        "label": null,
        "multi": true,
        "name": "USER",
        "options": [],
        "query": "SHOW TAG VALUES FROM \"CLIENT_EVENTS2\" WITH KEY = \"AxUser\" where time>now() -2w",
        "refresh": 1,
        "regex": "",
        "skipUrlSync": false,
        "sort": 0,
        "tagValuesQuery": "",
        "tags": [],
        "tagsQuery": "",
        "type": "query",
        "useTags": false
      },
      {
        "allValue": "*",
        "current": {},
        "datasource": "$SISTEMA",
        "definition": "SHOW TAG VALUES FROM \"CLIENT_EVENTS2\" WITH KEY = \"Control\" where time>now() -2w",
        "description": null,
        "error": null,
        "hide": 0,
        "includeAll": true,
        "label": null,
        "multi": true,
        "name": "CONTROLNAME",
        "options": [],
        "query": "SHOW TAG VALUES FROM \"CLIENT_EVENTS2\" WITH KEY = \"Control\" where time>now() -2w",
        "refresh": 1,
        "regex": "",
        "skipUrlSync": false,
        "sort": 0,
        "tagValuesQuery": "",
        "tags": [],
        "tagsQuery": "",
        "type": "query",
        "useTags": false
      },
      {
        "allValue": "*",
        "current": {},
        "datasource": "$SISTEMAFLUX",
        "definition": "import \"influxdata/influxdb/v1\"\r\nimport \"strings\"\r\nv1.tagValues(\r\nbucket: v.bucket,\r\ntag: \"host\",\r\npredicate: (r) => r._measurement == \"Microsoft_Dynamics_AX_Client_6.3\",\r\nstart: -2w\r\n)\r\n|> map(fn: (r) => ({ r with _value: strings.toUpper(v: r._value) }))",
        "description": null,
        "error": null,
        "hide": 0,
        "includeAll": true,
        "label": null,
        "multi": true,
        "name": "AxClientHost",
        "options": [],
        "query": "import \"influxdata/influxdb/v1\"\r\nimport \"strings\"\r\nv1.tagValues(\r\nbucket: v.bucket,\r\ntag: \"host\",\r\npredicate: (r) => r._measurement == \"Microsoft_Dynamics_AX_Client_6.3\",\r\nstart: -2w\r\n)\r\n|> map(fn: (r) => ({ r with _value: strings.toUpper(v: r._value) }))",
        "refresh": 1,
        "regex": "",
        "skipUrlSync": false,
        "sort": 0,
        "tagValuesQuery": "",
        "tags": [],
        "tagsQuery": "",
        "type": "query",
        "useTags": false
      },
      {
        "allValue": "*",
        "current": {},
        "datasource": "$SISTEMAFLUX",
        "definition": "import \"influxdata/influxdb/v1\"\r\nimport \"strings\"\r\nv1.tagValues(\r\nbucket: v.bucket,\r\ntag: \"host\",\r\npredicate: (r) => r._measurement == \"Microsoft_Dynamics_AX_Object_Server\",\r\nstart: -2w\r\n)\r\n|> map(fn: (r) => ({ r with _value: strings.toUpper(v: r._value) }))",
        "description": null,
        "error": null,
        "hide": 0,
        "includeAll": true,
        "label": null,
        "multi": true,
        "name": "AxAosHost",
        "options": [],
        "query": "import \"influxdata/influxdb/v1\"\r\nimport \"strings\"\r\nv1.tagValues(\r\nbucket: v.bucket,\r\ntag: \"host\",\r\npredicate: (r) => r._measurement == \"Microsoft_Dynamics_AX_Object_Server\",\r\nstart: -2w\r\n)\r\n|> map(fn: (r) => ({ r with _value: strings.toUpper(v: r._value) }))",
        "refresh": 1,
        "regex": "",
        "skipUrlSync": false,
        "sort": 0,
        "tagValuesQuery": "",
        "tags": [],
        "tagsQuery": "",
        "type": "query",
        "useTags": false
      },
      {
        "allValue": "*",
        "current": {
          "selected": true,
          "text": "15m",
          "value": "15m"
        },
        "description": null,
        "error": null,
        "hide": 0,
        "includeAll": false,
        "label": "AggregationInterval",
        "multi": false,
        "name": "AggragationInterval",
        "options": [
          {
            "selected": false,
            "text": "1m",
            "value": "1m"
          },
          {
            "selected": false,
            "text": "2m",
            "value": "2m"
          },
          {
            "selected": false,
            "text": "3m",
            "value": "3m"
          },
          {
            "selected": false,
            "text": "5m",
            "value": "5m"
          },
          {
            "selected": false,
            "text": "10m",
            "value": "10m"
          },
          {
            "selected": true,
            "text": "15m",
            "value": "15m"
          },
          {
            "selected": false,
            "text": "30m",
            "value": "30m"
          },
          {
            "selected": false,
            "text": "1h",
            "value": "1h"
          }
        ],
        "query": "1m,2m,3m,5m,10m,15m,30m,1h",
        "queryValue": "",
        "skipUrlSync": false,
        "type": "custom"
      }
    ]
  },
  "time": {
    "from": "now-1h",
    "to": "now"
  },
  "timepicker": {
    "refresh_intervals": [
      "5s",
      "10s",
      "30s",
      "1m",
      "5m",
      "15m",
      "30m",
      "1h",
      "2h",
      "1d"
    ],
    "time_options": [
      "5m",
      "15m",
      "1h",
      "6h",
      "12h",
      "24h",
      "2d",
      "7d",
      "30d"
    ]
  },
  "timezone": "browser",
  "title": "CLIENT view",
  "uid": "AXCLIENTVIEW",
  "version": 2
}